<svg width="16" height="16" viewBox="0 0 16 16" fill="none" xmlns="http://www.w3.org/2000/svg">
<path d="M4 14.5L4 2" stroke="#1F2933" stroke-width="1.4"/>
<path d="M12 13.5L12 1.5" stroke="#1F2933" stroke-width="1.4"/>
<path d="M1.5 4.5L4 2L6.5 4.5" stroke="#1F2933" stroke-width="1.2"/>
<path d="M14.5 11.5L12 14L9.5 11.5" stroke="#1F2933" stroke-width="1.2"/>
</svg>
